Se apresentando
…
maxwel <- babynames %>%
  filter(name == "Maxwel" | name == "Maxwell") %>% 
  filter(sex == "M") 

A primeira parte cria um novo conjunto de dados chamado maxwel que  uma cpia do conjunto de dadosbabynames - o %>% diz que estamos fazendo outras coisas nele.

A segunda parte filtra (filter) nossosnomes de bebs para manter apenas as linhas em que o nome  Maxwel ou Maxwell (leia|como " ou ".)

A terceira parte filtra aplica outro filtro (filter) para manter apenas aqueles onde o sexo  masculino.

Vamos verificar os dados.

maxwel

# A tibble: 161 x 5
    year sex   name        n      prop
   <dbl> <chr> <chr>   <int>     <dbl>
 1  1880 M     Maxwell     9 0.0000760
 2  1882 M     Maxwell     6 0.0000492
 3  1883 M     Maxwell    10 0.0000889
 4  1884 M     Maxwell     8 0.0000652
 5  1885 M     Maxwell     8 0.000069 
 6  1886 M     Maxwell     6 0.0000504
 7  1887 M     Maxwell     7 0.0000640
 8  1888 M     Maxwell     7 0.0000539
 9  1889 M     Maxwell    11 0.0000924
10  1890 M     Maxwell    15 0.000125 
#  with 151 more rows
…
