Introdução a Programação em R para as Ciências Agrárias
…
```
## Parsed with column specification:
## cols(
##   expunit = col_double(),
##   tree = col_double(),
##   age = col_double(),
##   circumference = col_double()
## )
```

```
## # A tibble: 35 x 4
##    expunit  tree   age circumference
##      <dbl> <dbl> <dbl>         <dbl>
##  1       1     1   118            30
##  2       2     1   484            58
##  3       3     1   664            87
##  4       4     1  1004           115
##  5       5     1  1231           120
##  6       6     1  1372           142
##  7       7     1  1582           145
##  8       8     2   118            33
##  9       9     2   484            69
## 10      10     2   664           111
## # … with 25 more rows
```
…
.pull-left[

- Seleciona colunas de um data frame

- Input: dados e colunas a serem mantidos

- Output: dados com apenas as colunas especificadas

```r
select(orange, age)
```

```
## # A tibble: 35 x 1
##      age
##    <dbl>
##  1   118
##  2   484
##  3   664
##  4  1004
##  5  1231
##  6  1372
##  7  1582
##  8   118
##  9   484
## 10   664
## # … with 25 more rows
```

]

.pull-right[

**O mesmo que**

```r
tibble(orange$age)
```

```
## # A tibble: 35 x 1
##    `orange$age`
##           <dbl>
##  1          118
##  2          484
##  3          664
##  4         1004
##  5         1231
##  6         1372
##  7         1582
##  8          118
##  9          484
## 10          664
## # … with 25 more rows
```
…
- Cria uma nova coluna

- Input: dados e a definição da nova coluna
  
  - col_name = <valor>

- Output: dados com a nova coluna

```r
mutate(orange,
       circ_cm = circumference / 100)
```

```
## # A tibble: 35 x 5
##    expunit  tree   age circumference circ_cm
##      <dbl> <dbl> <dbl>         <dbl>   <dbl>
##  1       1     1   118            30   0.3  
##  2       2     1   484            58   0.580
##  3       3     1   664            87   0.87 
##  4       4     1  1004           115   1.15 
##  5       5     1  1231           120   1.2  
##  6       6     1  1372           142   1.42 
##  7       7     1  1582           145   1.45 
##  8       8     2   118            33   0.33 
##  9       9     2   484            69   0.69 
## 10      10     2   664           111   1.11 
## # … with 25 more rows
```
]

---

##  mutate()

**Same as**

```r
orange %>% 
  mutate(circ_cm = circumference / 100)
```

```
## # A tibble: 35 x 5
##    expunit  tree   age circumference circ_cm
##      <dbl> <dbl> <dbl>         <dbl>   <dbl>
##  1       1     1   118            30   0.3  
##  2       2     1   484            58   0.580
##  3       3     1   664            87   0.87 
##  4       4     1  1004           115   1.15 
##  5       5     1  1231           120   1.2  
##  6       6     1  1372           142   1.42 
##  7       7     1  1582           145   1.45 
##  8       8     2   118            33   0.33 
##  9       9     2   484            69   0.69 
## 10      10     2   664           111   1.11 
## # … with 25 more rows
```
…
- Output: Uma tabela ordenada pelos valores da coluna de entrada

]

.pull-right[

```r
orange %>% 
  group_by(tree) %>% 
  arrange(desc(circumference))
```

```
## # A tibble: 35 x 4
## # Groups:   tree [5]
##    expunit  tree   age circumference
##      <dbl> <dbl> <dbl>         <dbl>
##  1      28     4  1582           214
##  2      27     4  1372           209
##  3      13     2  1372           203
##  4      14     2  1582           203
##  5      26     4  1231           179
##  6      35     5  1582           177
##  7      34     5  1372           174
##  8      12     2  1231           172
##  9      25     4  1004           167
## 10      11     2  1004           156
## # … with 25 more rows
```
…
